IntentAXA, intentDF, Query
blame.failed,positive,"Написал что с собакой, позвонил, уточнил все ли верно. Узнал что собака не мелкая попросил отменить заказ"
blame.failed,positive,"Не понравилось. Водитель вел беседу со своим коллегой совсем не там, где было указано в заказе. И вообще было не понятно, где мною заказанная машина — либо ещё не приехала, либо одна из двух, которые находились в 200 метрах от указанного места. Так не делается, увы. Тем более, что ц меня больная спина и ноги."
positive,positive,"Не понятно, зачем водителю телефон. Не очень вежливый"
positive,positive,Не советую
positive,positive,"Первый из вашей службы не понравился, х"
positive,positive,"С поездкой все хорошо, вот только пропала моя 15-то процентная скидка"
blame.curse,blame.curse,Говно
blame.driving,blame.driving,"Максимально медленно, на транспорте и то было быстрее"
blame.failed,blame.failed,Водитель не приехал!-на звонок не ответил-найти нас не посчитал вероятно нужным!
blame.failed,blame.failed,Водитель не смог подъехать к другому подъезду! Отмена заказа
blame.failed,blame.failed,Водитель отказался подъехать к парковке тц.Замок
blame.failed,blame.failed,"Водитель приехал и отказывается везти, сижу в машине. 15 минут добирался , дважды ему звонила! Что за кошмар!!"
blame.failed,blame.failed,"Двери не открываются, при этом свое недавольство показывает водитель, а не я. Спрашивает где высадить, говорю на остановке, в итоге высаживает возле бордюр, мне простите по грязи к тратуару идти! Отвратительно!"
blame.failed,blame.failed,"Добрый день, я не отказывался от поездки, её отменил водитель, прошу вернуть бонусы"
blame.failed,blame.failed,Не доехал до места! Не позвонил! Просто постоял где-то в стороне и уехал...
blame.failed,blame.failed,"Не клиент отказался, а водитель предупредил о том что не успеет!"
None,blame.failed,Отказ от поездки
blame.failed,blame.failed,Отказался
blame.failed,blame.failed,Позвонил водитель и отказался ехать в фаниполь. А я уже вышел из больницы...
blame.fare,blame.fare,"Вместо 9 рублей которые были с самого начала заплатил почему то 12 с мелочью , прошу решить пробоему , в лишние точки не заезжали , ехали по одному маршруту"
blame.fare,blame.fare,"И не довёз до места назначения, взял сумму больше чем по чеку было, сдачу даже не предложил! Смысл ездить на таком такси когда до места назначения идёшь неизвестно сколько пешком?! Отвратительно!!!! Администрация разберитесь"
blame.fare,blame.fare,Обманул на рубль)
blame.fare,blame.fare,"Поездка вышла почти в 2 раза дороже из-за выбранного маршрута, а также выключил счётчик спустя несколько кварталов после того как высадил нас"
blame.fare,blame.fare,Поехали по маршруту который на 2 км длиннее
blame.fare,blame.fare,Попросил отвезти печку сказал деньги заплатят когда отвезет в итоге когда отвез попросил 2 раза больше
blame.fare,blame.fare,"Стояла оплата картой , я не знала и заплатила наличкой . Водитель промолчал ("
blame.vehicle,blame.incomplete,В машине ужасный запах. Водитель не здоровается и не прощается даже.
blame.incomplete,blame.incomplete,Водитель слушает ужасную музыку
blame.incomplete,blame.incomplete,Ужас
blame.vehicle,blame.incomplete,"Ужасно прокуренная, грязная машина!!!!!! Просто ужас!!"
blame.late,blame.late,долго ехал
blame.lost,blame.late,"Заранне заказывала поездку,откликнулся этот водитель,в итоге в указанное и оговоренное заранее время не явился и даже не перезвонил и не предупредил,что не приедет. Я потеряла время и опоздала на важное мероприятие. Было бы минус 20 звезд,поставила бы все в минусе,поскольку это неприемлимо так относиться к клиенту."
blame.fare,blame.lost,"Мне тут срочно нужно было на вокзал. Мы успели конечно, но .... у меня не было кошелька , я его забыла дома , но были монеты. Поездка выходила 8 рублей. Он очень испугался что я выйду из машины и не оплачу ему. Сказал платите на телефон через карту. Я говорю давайте приедем я посмотрю стоимость поездки и доплату. Дала на руки ему 5 рублей. Но он сказал, не платите сейчас. Сдачу верну. Как думаете вернул ??? Нет ) и не важно 2 рубля она была или нет. Само отношение водителя. Если боишься, что девушка не оплатит и требуешь сразу, так ты и сдачу сразу отдавай."
blame.lost,blame.lost,Не можем связаться
blame.rude,blame.rude,Грубит при разговоре по телефону
blame.rude,blame.rude,позорище...
blame.rude,blame.rude,Хамло
blame.rude,blame.rude,Хамский водитель! Вышвыривает с машины! Угрожает! Отказывает в поездке по причине того что в машину село 4 человека!
blame.vehicle,blame.vehicle,воняло в машине сигарами
blame.vehicle,blame.vehicle,"Сначала 15 минут, потом меньше, водитель не умеет рассчитывать время поездки"
None,input.unknown,👎🏻👎🏻👎🏻
None,input.unknown,Бестактный водитель.
blame.failed,input.unknown,"В приложении была оплата картой, но водитель этого у себя в приложении не видел. В итоге оплатили наличными!!!"
None,input.unknown,Матусевича
None,input.unknown,Обман мошенничество!!!!!
None,input.unknown,Первый и последний раз я ехала с этим водителем!
positive,input.unknown,Полный неготив((( отвращение
None,input.unknown,Такси для курящих пассажиров
blame.incomplete,input.unknown,"Ужасная поездка, плохая машина и водитель, который постоянно резко тормозит, ругается и создает аварийные ситуации"
positive,positive,"Быстро приехал водитель, но музыка в машине ад"
positive,positive,"Машина хорошая, но водитель попытался грамотно ""обуть""."
blame.driving,blame.driving,Опасная агрессивная манера вождения
blame.fare,blame.fare,"Платить тариф в два раза больше стандартного тарифа, за то, чтобы водитель увёз меня в сторону от маршрута? Мне кажется, это уже слишком"
blame.late,blame.late,"Водитель опоздал, в машине не очень чисто."
blame.rude,blame.rude,Неприятный запах в машине
blame.rude,blame.rude,"Странный выбор маршрута, неоправданная трата времени"
blame.vehicle,blame.vehicle,"Всю дорогу ""жрал"" семечки и от этого жутко воняло в машине. Плюс болтал по личным делам ( я совершенно не против этого), но как то это не очень не замечать клиента и привезти меня с другой стороны дома, хотя в адресе указан подъезд!"
blame.vehicle,blame.vehicle,"Машина внутри грязная, запах табака. Водитель тем не менее приятный."
blame.vehicle,blame.vehicle,Ужасно накурено в машине и грязно
blame.failed,input.unknown,Человек не чувствует себя в сфере обслуживания
positive,positive,нормально
blame.fare,positive,"Очень интересно почему стоимость изменилась с 8,37 на 8,67..."
blame.incomplete,blame.incomplete,Не плохо
blame.late,blame.late,Опоздал
blame.rude,blame.rude,Грубил
blame.vehicle,blame.vehicle,Прокуренный салон
blame.vehicle,input.unknown,Грязный салон
blame.failed,input.unknown,Не самый кратчайший маршрут утром в воскресенье
positive,positive,Молчаливый водитель.
positive,positive,Нормально)
positive,positive,"Очень жаль, что накуренно... поэтому не идеально."
blame.vehicle,positive,"Приятный водитель, вёз аккуратно, в машине накурено"
positive,positive,Хорошая поездка.Понятливый водитель
blame.vehicle,blame.driving,"Слишком резкий водитель, прокуренный салон."
blame.rude,blame.rude,В салоне неприятный запах.
blame.rude,blame.vehicle,Слишком громкая музыка
None,input.unknown,Леси украинки 16
None,input.unknown,Нот бэд
positive,positive,класс
positive,positive,Отлично
positive,positive,10 из 5) лучший из водителей что работают в Next! Приятно ехать !пример другим !
None,positive,Great
positive,positive,very good
positive,positive,"Аккуратно, быстро. Водитель культурный и общительный."
positive,positive,"Бус комфортный, есть багажник. Ехали 5 человек + сумки."
positive,positive,Быстро
positive,positive,"Быстро , водитель замечательный"
positive,positive,"Быстро , прекрасно"
positive,positive,"Быстро ,комфортно и безопасно , остался доволен ,"
positive,positive,Быстро и комфортно
positive,positive,Быстро и точно вовремя
positive,positive,Быстро и удобно.
positive,positive,"Быстро, комфортно и еще жизни поучил"
positive,positive,"Быстро, надежно"
positive,positive,"Быстро, под хорошую музыку, спасибо!)"
positive,positive,"Быстро,спокойно и с хорошей музыкой доехали😊"
positive,positive,Вежливо и аккуратно
positive,positive,Вежливый водитель
positive,positive,Вежливый водитель. отличный чистый автомобиль. ухожено. сигаретами не пахнет.
positive,positive,Вовремя приехал водитель.аккуратная машина
positive,positive,Водитель молодец. Хорошая и отличная поездка
positive,positive,Водитель отличный
positive,positive,"Водитель очень хороший, ехал аккуратно , смешной, хороший сотрудник"
positive,positive,"Водитель просто отличный,побольше таких"
positive,positive,"Все ,почти), ок!"
positive,positive,Всё было хорошо
positive,positive,Всё замечательно. Вежливый водитель
positive,positive,Все круто
positive,positive,Все на высоте
positive,positive,Всё ништяк
positive,positive,Все ок
positive,positive,Все ОК
positive,positive,Всё ок
positive,positive,все отлично
positive,positive,Все отлично
positive,positive,Всё отлично
positive,positive,"Всё отлично , водитель вежливый , приехал куда нужно , спасибо !!!!"
positive,positive,"Все отлично, советую"
positive,positive,"Все отлично, спасибо"
positive,positive,Все отлично!
positive,positive,Всё отлично!
positive,positive,Все отлично. Спасибо.
positive,positive,"Все отлично.Аккуратная,спокойная поездка"
positive,positive,Все прекрасно
positive,positive,Все супер
positive,positive,Всё супер!
positive,positive,Все хорошо
positive,positive,Всё хорошо
positive,positive,"Все хорошо, аккуратный и интеллигентный водитель"
positive,positive,"Все хорошо, советую"
positive,positive,"Все хорошо, спасибо!"
positive,positive,Всё хорошо! Спасибо!
positive,positive,Всё чётко
positive,positive,Всё чётко !
positive,positive,Всем советую
positive,positive,Доехали быстро и камфортно
positive,positive,Евгений был уставший. А хотелось душевных разговоров.
positive,positive,"Если бы было 6 звезд, поставил бы 6. Спасибо."
positive,positive,Замечательно
positive,positive,Замечательный водитель
positive,positive,Замечательный водитель и собеседник.
positive,positive,"Замечательный водитель,спокойная музыка,вкусно пахнет в машине！"
positive,positive,Замечательный водитель!!!!рекомендую!!!
positive,positive,Замечательный человек. Опытный водитель.
positive,positive,Идеально
positive,positive,Как всегда идеально!
positive,positive,Классно всё прямо очень
positive,positive,"Клевый водитель, приятный собеседник"
positive,positive,Комфортное вождение. Все отлично.
positive,positive,"Крайне позитивный водитель, приятно было ехать. Жаль таких мало."
positive,positive,Красава водитель) спасибо за музыку)
positive,positive,"Крутая машина,хороший водитель!!!"
positive,positive,Круто
positive,positive,Крутой парень!!! Очень разговорчиаый и веселый. Время пути прошло незаметно!!! Хотелось еще кататься)))
positive,positive,Лучший в мире
positive,positive,Лучший водитель!
positive,positive,"Машина приехала быстро, водитель был вежлив."
positive,positive,Норм
positive,positive,Нормально
positive,positive,Огромное спасибо..
positive,positive,"Ок,спасибо"
positive,positive,Отличная поездка
positive,positive,отлично
positive,positive,Отлично 👌
positive,positive,Отлично!
positive,positive,"Отлично! Хороший водитель, удобная машина! Спасибо!"
positive,positive,Отлично!!!
positive,positive,Отлично.
positive,positive,Отлично. Доехали быстро. Водитель вежливый. Рекомендую
positive,positive,Отличное обслуживание
positive,positive,Отличный автомобиль + хороший водитель!
positive,positive,Отличный водитель
positive,positive,Отличный водитель и комфортный автомобиль!
positive,positive,Отличный водитель и очень приятный собеседник. Спасибо за поездку!
positive,positive,Отличный водитель и приятный собеседник. Спасибо за поездку.))
positive,positive,Отличный водитель и собеседник
positive,positive,Отличный водитель и собеседник!
positive,positive,"Отличный водитель, приличная машина"
positive,positive,"Отличный водитель,заботится о клиенте"
positive,positive,отличный водитель!
positive,positive,Отличный водитель!
positive,positive,Отличный водитель! Рекомендую!
positive,positive,"отличный водитель! содержит автомобиль в порядке, следит за словами, уважает мнение пассажира. спасибо!"
positive,positive,Отличный водитель!!
positive,positive,Отличный водитель!!!
positive,positive,Отличный водитель. Спасибо!
positive,positive,Отличный водитель. Хороший человек.
positive,positive,"Отличный водитель. Этим приложением пользуюсь впервые, Константин объяснил как пользоваться приложением, за что я выражают ему большую благодарность. Домой доехал очень быстро с полным комфортом. Таких людей (в Минске) встречаешь не часто, но хорошо что они есть. Константин большое Вам спасибо и успехов в работе."
positive,positive,Отличный водитель)
positive,positive,Отличный и вежливый водитель
positive,positive,Отличный сервис
positive,positive,Отличный собеседник и приятной души человек!
positive,positive,Очень вежливый и понимающий водитель! Спасибо ему за отличный сервис
positive,positive,"Очень вежливый, общительный водитель."
positive,positive,Очень доволен и водителем и поездкой
positive,positive,Очень довольна качеством обслуживания!
positive,positive,Очень комфортная поездка! Спасибо водителю!
positive,positive,Очень комфортно добрались до своего места заказа
positive,positive,Очень комфортно и есть о чем поговорить.
positive,positive,Очень милый и позитивный водитель) 5 звёзд!)
blame.failed,positive,"Очень ответственный водитель. В автомобиле есть бустер для детей. Первый водитель, который отказывался вести малыша без автокресла. Поставили без проблем своё."
positive,positive,Очень позитивный и приятный водитель!)
positive,positive,Очень приятная поездка)
positive,positive,Очень приятный водитель
positive,positive,Очень приятный водитель и чисто в машине.
positive,positive,"Очень приятный водитель, было интересно пообщаться."
positive,positive,Очень приятный водитель. Спасибо!
positive,positive,Очень приятный и аккуратный водитель
positive,positive,Очень спокойный)
positive,positive,Очень удобно.Пунктуально.Спасибо за комфорт!!!
positive,positive,Очень хороший водитель
positive,positive,Очень хороший Водитель!!!!
positive,positive,Очень хороший и вежливый водитель!
positive,positive,"Очень хороший и общительный водитель , советую только это такси"
positive,positive,Очень хороший и отзывчивый водитель
positive,positive,"Очень хороший и очень любезный ,водитель!"
positive,positive,Очень хорошо
positive,positive,Очень хорошо )
positive,positive,"Поездка класс!!! Всем довольна: салон чистый, поездка максимально комфортная)"
positive,positive,"Приветливый, окууратный и вежливый водитель"
positive,positive,"Приехал, забрал, отвёз куда нужно ) Спасибо."
positive,positive,"Приехали быстро, довезли аккуратно, водитель приветливый. Спасибо!"
positive,positive,"Приятная поездка, вежливый водитель"
positive,positive,"Приятное общение, хороший водитель"
positive,positive,Приятный вежливый водитель!
positive,positive,Приятный водитель
positive,positive,"Приятный водитель, аккуратная езда. Чистое авто"
positive,positive,Приятный водитель!
positive,positive,Приятный водитель. Отличная поездка.
positive,positive,Приятный водитель))
positive,positive,Приятный водитеь
positive,positive,Приятный молодой человек! Езда аккуратная :)
positive,positive,"Приятный позитивный водитель, хорошее впечатление, рекомендую. Спасибо за поездку"
positive,positive,Самый вежливый водитель из всех!
blame.vehicle,positive,"Собака зарыгал всю машину, но водитель ни слова не проронил и даже сам все убрал. Наверное, боялся меня потому что я готов был убить всех в тот момент. Спасибо за сервис. Пять звёзд."
positive,positive,"Советую, быстро, безопасно и не скучно"
positive,positive,"Советую, отличный водитель."
positive,positive,Спасибо
positive,positive,Спасибо 😊
positive,positive,"Спасибо большое, отличный водитель"
positive,positive,Спасибо за комфортную поездку!
positive,positive,Спасибо за поездку :)
positive,positive,Спасибо за хорошую поездку и беседу.
positive,positive,Спасибо!
positive,positive,Спасибо! Быстро довезли!
positive,positive,"Спасибо. Вовремя, быстро, спокойно"
positive,positive,Спасибо. Всё отлично. Оперативно и комфортно.
positive,positive,Спасибо. Все хорошо.
positive,positive,Спасибо. Отлично.
positive,positive,"Спокойная езда, все круто"
positive,positive,"Спокойная приятная поездка,спасибо!"
None,positive,Спс
None,positive,СПС
positive,positive,Супер
positive,positive,Супер .
positive,positive,Супер водитель!
blame.lost,positive,"Супер водитель!! Я забыл телефон, а он вернулся и подождал пока я вернусь за ним"
positive,positive,Супер:)
positive,positive,Супер!
positive,positive,Супер!!!!
positive,positive,Супер)
positive,positive,Удобно Быстро Комфортно))
positive,positive,Хорошая машина и очень очень приятный водитель!)
positive,positive,"Хорошая музыка, водитель очень отзывчивый,отзывчивый сломала ноготь позаботился и предложил пластырь всем рекомендую.В машине приятно пахнет,не накуренный салон.Поездка прошла очень быстро,хоть и были пробки.Спасибо вам огромное за сервис.По больше бы таких водителей."
positive,positive,"Хорошее такси , аккуратные водители,всё отлично. Спасибо таксисту Юре и таксисту Льву."
positive,positive,Хороший водитель
positive,positive,"Хороший водитель, быстро доехали. Спасибо"
positive,positive,Хороший водитель.
positive,positive,Хороший водитель. Вежливый.
positive,positive,Хороший очень водитель!!!
positive,positive,Хороший плейлист
positive,positive,Хорошо
positive,positive,"Шикарно) Алексей - лучший водитель, которого я встречала)"
positive,positive,Шустрый водитель)) все ок) рекомендую!!!
blame.curse,blame.curse,Хуйния
blame.failed,blame.failed,"Клиент не отказался,а благополучно находится в машине ,водитель нечаянно скинул заказ"
blame.fare,blame.fare,Программа не считает скидку
None,blame.incomplete,Довёз водитель без проблем.
None,input.unknown,👍🏼
None,input.unknown,👍👍👍
None,input.unknown,1664
None,input.unknown,5 из 5
None,input.unknown,5+ водителю
None,input.unknown,8.54
None,input.unknown,Dzh
None,input.unknown,iuu
None,input.unknown,Oki
None,input.unknown,This
None,input.unknown,А А
None,input.unknown,Ахуенно
None,input.unknown,В огне)
None,input.unknown,Водитель глвно
None,input.unknown,Водитель красава ✌
None,input.unknown,Водитель красава)
positive,input.unknown,Все отлично
None,input.unknown,Дзерженского 83
None,input.unknown,Для
None,input.unknown,Доехали с ветерком)
None,input.unknown,Домбрлвскся 10
positive,input.unknown,Евгений отличный водитель! Большое спасибо Вам за Комфортную поездку!
None,input.unknown,Захарова
None,input.unknown,Здравствуйте
None,input.unknown,Какие
None,input.unknown,Кижеватова 60/2
None,input.unknown,Космоновтов 37
None,input.unknown,Космос))
None,input.unknown,Кульман 40
None,input.unknown,Лллл
None,input.unknown,Лобанка
None,input.unknown,Лол
None,input.unknown,Люцинская 29
None,input.unknown,Матусевича 33
None,input.unknown,Матусевича 62
None,input.unknown,нет
None,input.unknown,Нск
None,input.unknown,Оденцова
None,input.unknown,Озерцо
None,input.unknown,Пар
None,input.unknown,Ппп
None,input.unknown,Президент
None,input.unknown,Привет
None,input.unknown,Пушкина 77
None,input.unknown,Самый топский в мире
None,input.unknown,"Сервис на высоте,спасибоооо))))))"
None,input.unknown,Скоростной
None,input.unknown,Сойдет
positive,input.unknown,"Супер водитель, добрый и вежлевый, хороший собеседник."
None,input.unknown,Сурганова
None,input.unknown,Уручская 31
None,input.unknown,Хде
None,input.unknown,ХОзерцо
None,input.unknown,Чюрлениса 6
None,input.unknown,Шаранговича 61
None,input.unknown,Эээ