[
  {
    "id": "ec35c6b4-9f44-46f2-8af0-c141d169b40c",
    "data": [
      {
        "text": "негодяй",
        "userDefined": false
      }
    ],
    "isTemplate": false,
    "count": 0,
    "updated": 1550477222
  },
  {
    "id": "ae572071-7cb4-4da2-bd30-2468b1f87562",
    "data": [
      {
        "text": "принципиальный",
        "userDefined": false
      }
    ],
    "isTemplate": false,
    "count": 0,
    "updated": 1550477222
  },
  {
    "id": "c2c05a5a-1ff8-4f82-8363-2f82837fee44",
    "data": [
      {
        "text": "раздражение",
        "userDefined": false
      }
    ],
    "isTemplate": false,
    "count": 0,
    "updated": 1550477222
  },
  {
    "id": "040f6de3-6aeb-4ddc-9353-7723e3a7c845",
    "data": [
      {
        "text": "громко",
        "userDefined": false
      }
    ],
    "isTemplate": false,
    "count": 0,
    "updated": 1550477222
  },
  {
    "id": "e0815ebf-4f3a-4267-b6a3-ee0854fab9da",
    "data": [
      {
        "text": "аггрессивный",
        "userDefined": false
      }
    ],
    "isTemplate": false,
    "count": 0,
    "updated": 1550477222
  },
  {
    "id": "04d9fd27-45d3-4c46-8b08-1126da0f4d0b",
    "data": [
      {
        "text": "трудный",
        "userDefined": false
      }
    ],
    "isTemplate": false,
    "count": 0,
    "updated": 1550477222
  },
  {
    "id": "a8cfd19d-f8d2-4e54-9ac5-a6b969575d3a",
    "data": [
      {
        "text": "скучный",
        "userDefined": false
      }
    ],
    "isTemplate": false,
    "count": 0,
    "updated": 1548606568
  },
  {
    "id": "1b93df71-2fe5-4a4b-b63b-eb7324c49f98",
    "data": [
      {
        "text": "самоуверенный",
        "userDefined": false
      }
    ],
    "isTemplate": false,
    "count": 0,
    "updated": 1548606454
  },
  {
    "id": "f291a6b1-46cd-42ee-a10f-cfd57a4e2bf5",
    "data": [
      {
        "text": "невежлив",
        "userDefined": false
      }
    ],
    "isTemplate": false,
    "count": 0,
    "updated": 1546673106
  },
  {
    "id": "5f219cd7-e55c-43de-8ac6-2b36db4651ba",
    "data": [
      {
        "text": "ругается",
        "userDefined": false
      }
    ],
    "isTemplate": false,
    "count": 0,
    "updated": 1546672825
  },
  {
    "id": "f91a638e-e3e5-4c23-9c34-7f33ad7cc7c4",
    "data": [
      {
        "text": "неадекват",
        "userDefined": false
      }
    ],
    "isTemplate": false,
    "count": 0,
    "updated": 1546252762
  },
  {
    "id": "9715594d-a64d-4627-8b3e-b98a2a1c3613",
    "data": [
      {
        "text": "невоспитанный",
        "userDefined": false
      }
    ],
    "isTemplate": false,
    "count": 0,
    "updated": 1544955876
  },
  {
    "id": "c8a6573e-48d1-4d80-b4cd-2e9093becbc4",
    "data": [
      {
        "text": "Конченый",
        "userDefined": false
      }
    ],
    "isTemplate": false,
    "count": 0,
    "updated": 1543914160
  },
  {
    "id": "04bb3634-7a3c-48e4-8f35-d065197b33b7",
    "data": [
      {
        "text": "нетрезвый",
        "userDefined": false
      }
    ],
    "isTemplate": false,
    "count": 0,
    "updated": 1543914010
  },
  {
    "id": "ecdf737f-b74b-47ff-9e1d-7da7dce154f5",
    "data": [
      {
        "text": "конфликтный",
        "userDefined": false
      }
    ],
    "isTemplate": false,
    "count": 0,
    "updated": 1543663469
  },
  {
    "id": "e0ee229c-280c-4f63-9b15-70332bda5ffa",
    "data": [
      {
        "text": "нагрубил",
        "userDefined": false
      }
    ],
    "isTemplate": false,
    "count": 0,
    "updated": 1543663469
  },
  {
    "id": "fec20974-b378-4175-a487-44e467828fe8",
    "data": [
      {
        "text": "закричал",
        "userDefined": false
      }
    ],
    "isTemplate": false,
    "count": 0,
    "updated": 1542711776
  },
  {
    "id": "89c84fe6-f3c6-44c2-b882-739210f027fd",
    "data": [
      {
        "text": "наглость",
        "userDefined": false
      }
    ],
    "isTemplate": false,
    "count": 0,
    "updated": 1541664052
  },
  {
    "id": "56d67212-f598-4f77-b06c-85e6768ffab9",
    "data": [
      {
        "text": "грубость",
        "userDefined": false
      }
    ],
    "isTemplate": false,
    "count": 0,
    "updated": 1541512465
  },
  {
    "id": "3c270cff-a1d1-4bbc-a7d4-d76b11fdec09",
    "data": [
      {
        "text": "мошенник",
        "userDefined": false
      }
    ],
    "isTemplate": false,
    "count": 0,
    "updated": 1541512331
  },
  {
    "id": "875dfeb9-abb2-4534-8b42-6880a7544026",
    "data": [
      {
        "text": "позорище",
        "userDefined": false
      }
    ],
    "isTemplate": false,
    "count": 0,
    "updated": 1541512057
  },
  {
    "id": "7917b36c-a775-4e0a-877f-3ed82d2a58b3",
    "data": [
      {
        "text": "позор",
        "userDefined": false
      }
    ],
    "isTemplate": false,
    "count": 0,
    "updated": 1541512057
  },
  {
    "id": "62ded401-18c4-4d1e-964d-826f6c87e51c",
    "data": [
      {
        "text": "борзый",
        "userDefined": false
      }
    ],
    "isTemplate": false,
    "count": 0,
    "updated": 1540801146
  },
  {
    "id": "d4ce4151-3c87-45bb-90a0-ba3fb8e6c70c",
    "data": [
      {
        "text": "хамское",
        "userDefined": false
      }
    ],
    "isTemplate": false,
    "count": 0,
    "updated": 1540039767
  },
  {
    "id": "6f8c5fa7-bb25-4997-81ef-6c5634c4dbca",
    "data": [
      {
        "text": "пришлось объяснять",
        "userDefined": false
      }
    ],
    "isTemplate": false,
    "count": 0,
    "updated": 1540039650
  },
  {
    "id": "30165e8f-677b-4435-9970-5ddd8d1fb2bc",
    "data": [
      {
        "text": "нервный",
        "userDefined": false
      }
    ],
    "isTemplate": false,
    "count": 0,
    "updated": 1540039650
  },
  {
    "id": "da4f94a9-4a40-46c0-97f1-ea3febf87ead",
    "data": [
      {
        "text": "Угрожает",
        "userDefined": false
      }
    ],
    "isTemplate": false,
    "count": 0,
    "updated": 1539412733
  },
  {
    "id": "7ff5bb70-e2d6-46f2-84e1-8c72ed014ee0",
    "data": [
      {
        "text": "матерился",
        "userDefined": false
      }
    ],
    "isTemplate": false,
    "count": 0,
    "updated": 1539412733
  },
  {
    "id": "934f0d78-dd7d-4c32-9eae-675793056a14",
    "data": [
      {
        "text": "Грубый",
        "userDefined": false
      }
    ],
    "isTemplate": false,
    "count": 0,
    "updated": 1539412733
  },
  {
    "id": "9d9b2d38-cfcc-4779-ab8d-31eaef747230",
    "data": [
      {
        "text": "Конченный",
        "userDefined": false
      }
    ],
    "isTemplate": false,
    "count": 0,
    "updated": 1539412733
  },
  {
    "id": "4134525f-e0ab-495b-8811-cffaa37d0f5b",
    "data": [
      {
        "text": "дерзкий",
        "userDefined": false
      }
    ],
    "isTemplate": false,
    "count": 0,
    "updated": 1539412733
  },
  {
    "id": "a558a645-0d9e-43c8-b531-42ed5001bb65",
    "data": [
      {
        "text": "неодекватный",
        "userDefined": false
      }
    ],
    "isTemplate": false,
    "count": 0,
    "updated": 1540039650
  },
  {
    "id": "bc8e6b12-a3a6-4d82-b787-35a2db8256c5",
    "data": [
      {
        "text": "Неадекватно",
        "userDefined": false
      }
    ],
    "isTemplate": false,
    "count": 0,
    "updated": 1539412733
  },
  {
    "id": "865d2d9b-b2b0-4bd5-b708-249eb3868863",
    "data": [
      {
        "text": "обозвал",
        "userDefined": false
      }
    ],
    "isTemplate": false,
    "count": 1,
    "updated": 1539412733
  },
  {
    "id": "ff930c45-066a-4a05-add4-1ee5ca1aa854",
    "data": [
      {
        "text": "неприятный",
        "userDefined": false
      }
    ],
    "isTemplate": false,
    "count": 0,
    "updated": 1539412733
  },
  {
    "id": "6a1acb52-49b9-4de3-99c9-d741b213f3ae",
    "data": [
      {
        "text": "послал",
        "userDefined": false
      }
    ],
    "isTemplate": false,
    "count": 0,
    "updated": 1539346588
  },
  {
    "id": "d56f281d-7af5-451a-82d2-1eea6b7aa38a",
    "data": [
      {
        "text": "грубо",
        "userDefined": false
      }
    ],
    "isTemplate": false,
    "count": 0,
    "updated": 1539412733
  },
  {
    "id": "7a23fa02-60cf-4b72-baa2-5e13b5460e24",
    "data": [
      {
        "text": "Страшно",
        "userDefined": false
      }
    ],
    "isTemplate": false,
    "count": 0,
    "updated": 1539412733
  },
  {
    "id": "73be6971-291d-4959-b593-c64e63538e73",
    "data": [
      {
        "text": "странный",
        "userDefined": false
      }
    ],
    "isTemplate": false,
    "count": 0,
    "updated": 1539346588
  },
  {
    "id": "f6d56396-beb7-4ab8-92eb-684c51d46392",
    "data": [
      {
        "text": "наглый",
        "userDefined": false
      }
    ],
    "isTemplate": false,
    "count": 0,
    "updated": 1539412733
  },
  {
    "id": "ed51b02e-c519-4d1c-a652-85c9cfea0c4b",
    "data": [
      {
        "text": "шансон",
        "userDefined": false
      }
    ],
    "isTemplate": false,
    "count": 0,
    "updated": 1539412733
  },
  {
    "id": "fd8dc770-5e56-49aa-bd5b-54179699a07f",
    "data": [
      {
        "text": "Отвратительный",
        "userDefined": false
      }
    ],
    "isTemplate": false,
    "count": 0,
    "updated": 1539412733
  },
  {
    "id": "ae6be9cd-64a9-47c6-bbf5-b40d2811cc9f",
    "data": [
      {
        "text": "Тупой",
        "userDefined": false
      }
    ],
    "isTemplate": false,
    "count": 0,
    "updated": 1539412733
  },
  {
    "id": "6315dff0-e3e9-406b-8bbf-1866496d4905",
    "data": [
      {
        "text": "хамил",
        "userDefined": false
      }
    ],
    "isTemplate": false,
    "count": 0,
    "updated": 1539412733
  },
  {
    "id": "8ea1f951-2ec5-46ed-a9d7-d959a6211c3e",
    "data": [
      {
        "text": "Угроза",
        "userDefined": false
      }
    ],
    "isTemplate": false,
    "count": 0,
    "updated": 1539412733
  },
  {
    "id": "463b214b-d65e-4707-8067-4e5ae3208c32",
    "data": [
      {
        "text": "Проигнорировал",
        "userDefined": false
      }
    ],
    "isTemplate": false,
    "count": 0,
    "updated": 1539412733
  },
  {
    "id": "9348c981-6731-449e-8d9c-0ccd17742467",
    "data": [
      {
        "text": "грубоват",
        "userDefined": false
      }
    ],
    "isTemplate": false,
    "count": 0,
    "updated": 1539412733
  },
  {
    "id": "ef4378d9-526f-4d83-98ef-c526d9b89822",
    "data": [
      {
        "text": "хамство",
        "userDefined": false
      }
    ],
    "isTemplate": false,
    "count": 0,
    "updated": 1539412733
  },
  {
    "id": "d211b6cf-cc20-474d-ad9b-4ba9990eceb5",
    "data": [
      {
        "text": "нахамил",
        "userDefined": false
      }
    ],
    "isTemplate": false,
    "count": 0,
    "updated": 1539346588
  },
  {
    "id": "367a9a0c-1c8a-4379-8fc7-3885508d27eb",
    "data": [
      {
        "text": "Неадекватный",
        "userDefined": false
      }
    ],
    "isTemplate": false,
    "count": 0,
    "updated": 1539412733
  },
  {
    "id": "7333e2a0-03ca-4c33-b3c6-46da518bb2c4",
    "data": [
      {
        "text": "угрюмый",
        "userDefined": false
      }
    ],
    "isTemplate": false,
    "count": 1,
    "updated": 1539412733
  },
  {
    "id": "a8748743-32f9-4046-90fa-d973d8311d68",
    "data": [
      {
        "text": "дерзил",
        "userDefined": false
      }
    ],
    "isTemplate": false,
    "count": 0,
    "updated": 1539412733
  },
  {
    "id": "f80bd1cf-006f-4f2f-afee-b5b4f695ab81",
    "data": [
      {
        "text": "нахомил",
        "userDefined": false
      }
    ],
    "isTemplate": false,
    "count": 0,
    "updated": 1539346588
  },
  {
    "id": "518daf20-892a-406f-b1a1-15c0e249fcaa",
    "data": [
      {
        "text": "Плохой",
        "userDefined": false
      }
    ],
    "isTemplate": false,
    "count": 0,
    "updated": 1539412733
  },
  {
    "id": "3bc9e19b-85d0-436a-afd3-1a936be6fa6c",
    "data": [
      {
        "text": "Безответственный",
        "userDefined": false
      }
    ],
    "isTemplate": false,
    "count": 0,
    "updated": 1539412733
  },
  {
    "id": "91f2ee51-0dcf-4868-8823-040cc07270fb",
    "data": [
      {
        "text": "некорректно",
        "userDefined": false
      }
    ],
    "isTemplate": false,
    "count": 0,
    "updated": 1539412733
  },
  {
    "id": "83842909-9abc-4880-afa5-d5befcd53fc0",
    "data": [
      {
        "text": "хамоватый",
        "userDefined": false
      }
    ],
    "isTemplate": false,
    "count": 0,
    "updated": 1539346588
  },
  {
    "id": "526e238f-56f9-4858-993d-5c44eb709087",
    "data": [
      {
        "text": "быдло",
        "userDefined": false
      }
    ],
    "isTemplate": false,
    "count": 0,
    "updated": 1539346588
  },
  {
    "id": "75e7b05b-fd4b-47cd-a00d-ec34ac13ec17",
    "data": [
      {
        "text": "Хам",
        "userDefined": false
      }
    ],
    "isTemplate": false,
    "count": 0,
    "updated": 1539346588
  },
  {
    "id": "bd5d80f8-287e-4d4c-9d28-94b7a31a0d76",
    "data": [
      {
        "text": "Грубиян",
        "userDefined": false
      }
    ],
    "isTemplate": false,
    "count": 0,
    "updated": 1539412733
  },
  {
    "id": "44714466-4394-45da-8094-c28ef7a3a5ba",
    "data": [
      {
        "text": "неуместные",
        "userDefined": false
      }
    ],
    "isTemplate": false,
    "count": 0,
    "updated": 1539412733
  },
  {
    "id": "35aaaf14-1ef5-4496-9741-ee17d3b4c86b",
    "data": [
      {
        "text": "хамло",
        "userDefined": false
      }
    ],
    "isTemplate": false,
    "count": 0,
    "updated": 1539412733
  },
  {
    "id": "1dea26cb-e07c-446a-a8b3-a33018b528dc",
    "data": [
      {
        "text": "конфликт",
        "userDefined": false
      }
    ],
    "isTemplate": false,
    "count": 0,
    "updated": 1539412733
  },
  {
    "id": "4c537750-4ae9-4dc2-a7c2-489aa4ae28e1",
    "data": [
      {
        "text": "Некомпетентный",
        "userDefined": false
      }
    ],
    "isTemplate": false,
    "count": 0,
    "updated": 1539412733
  }
]